{
  "posts": [
    {
      "id": 1,
      "title": "Post 1"
    },
    {
      "id": 2,
      "title": "Post 2"
    },
    {
      "id": 3,
      "title": "Post 3"
    }
  ],
  "comments": [
    {
      "id": 1,
      "body": "some comment",
      "postId": 1
    },
    {
      "id": 2,
      "body": "some comment",
      "postId": 1
    }
  ],
  "profile": {
    "name": "typicode"
  },
  "organizations": {
    "content": [
      {
        "inqr_seq": "0",
        "orz_cd": "4020162301",
        "orz_nm": "CORPORATE SALES ANCHOR",
        "orz_stat_cd": "1",
        "orz_stat_nm": null,
        "orz_strt_date": "20180123",
        "orz_end_date": "29991231",
        "orz_lev_cd": "30",
        "orz_lev_nm": null,
        "rgn_cd": " ",
        "rgn_nm": " ",
        "urnk_orz_cd": "3020160006",
        "urnk_orz_nm": "CORPORATE SR MGMT",
        "mgr_emp_no": "1670110015",
        "mgr_emp_nm": "Hadi Kusumajaya"
      },
      {
        "inqr_seq": "0",
        "orz_cd": "4021160018",
        "orz_nm": "3020160001 TEST",
        "orz_stat_cd": "1",
        "orz_stat_nm": null,
        "orz_strt_date": "20180115",
        "orz_end_date": "29991231",
        "orz_lev_cd": "62",
        "orz_lev_nm": null,
        "rgn_cd": " ",
        "rgn_nm": " ",
        "urnk_orz_cd": "4020160017",
        "urnk_orz_nm": "SERVICE & OPERATION STRATEGY",
        "mgr_emp_no": "1671110014",
        "mgr_emp_nm": "Lee seung hyun"
      },
      {
        "inqr_seq": "0",
        "orz_cd": "4054324234",
        "orz_nm": "ORGANIZATIONTES",
        "orz_stat_cd": "1",
        "orz_stat_nm": null,
        "orz_strt_date": "20200729",
        "orz_end_date": "29991231",
        "orz_lev_cd": "61",
        "orz_lev_nm": null,
        "rgn_cd": " ",
        "rgn_nm": " ",
        "urnk_orz_cd": "4054324234",
        "urnk_orz_nm": "ORGANIZATIONTES",
        "mgr_emp_no": "1234452394",
        "mgr_emp_nm": "testingwh"
      },
      {
        "inqr_seq": "1",
        "orz_cd": "4020160009",
        "orz_nm": "ADD TEST",
        "orz_stat_cd": "1",
        "orz_stat_nm": null,
        "orz_strt_date": "20181122",
        "orz_end_date": "29991231",
        "orz_lev_cd": "30",
        "orz_lev_nm": null,
        "rgn_cd": " ",
        "rgn_nm": " ",
        "urnk_orz_cd": "3020160005",
        "urnk_orz_nm": "UPPER AREA CODE_RETAIL GROUP",
        "mgr_emp_no": "1671110014",
        "mgr_emp_nm": "Lee seung hyun"
      },
      {
        "inqr_seq": "10",
        "orz_cd": "1020160001",
        "orz_nm": "CEO/COO",
        "orz_stat_cd": "1",
        "orz_stat_nm": null,
        "orz_strt_date": "20170301",
        "orz_end_date": "29991231",
        "orz_lev_cd": "10",
        "orz_lev_nm": null,
        "rgn_cd": " ",
        "rgn_nm": " ",
        "urnk_orz_cd": "1020160001",
        "urnk_orz_nm": "CEO/COO",
        "mgr_emp_no": "3637484726",
        "mgr_emp_nm": "TEST POC 2024"
      },
      {
        "inqr_seq": "100",
        "orz_cd": "4020162600",
        "orz_nm": "Authorization Development_DH",
        "orz_stat_cd": "1",
        "orz_stat_nm": null,
        "orz_strt_date": "20170301",
        "orz_end_date": "29991231",
        "orz_lev_cd": "30",
        "orz_lev_nm": null,
        "rgn_cd": " ",
        "rgn_nm": " ",
        "urnk_orz_cd": "3020160300",
        "urnk_orz_nm": "IT Development_GH",
        "mgr_emp_no": " ",
        "mgr_emp_nm": " "
      },
      {
        "inqr_seq": "105",
        "orz_cd": "4020162700",
        "orz_nm": "Independent Platform Development_DH",
        "orz_stat_cd": "1",
        "orz_stat_nm": null,
        "orz_strt_date": "20170301",
        "orz_end_date": "29991231",
        "orz_lev_cd": "30",
        "orz_lev_nm": null,
        "rgn_cd": " ",
        "rgn_nm": " ",
        "urnk_orz_cd": "3020160300",
        "urnk_orz_nm": "IT Development_GH",
        "mgr_emp_no": " ",
        "mgr_emp_nm": " "
      },
      {
        "inqr_seq": "110",
        "orz_cd": "4020162800",
        "orz_nm": "Acquiring Operations_DH",
        "orz_stat_cd": "1",
        "orz_stat_nm": null,
        "orz_strt_date": "20170301",
        "orz_end_date": "29991231",
        "orz_lev_cd": "30",
        "orz_lev_nm": null,
        "rgn_cd": " ",
        "rgn_nm": " ",
        "urnk_orz_cd": "3020160400",
        "urnk_orz_nm": "IT Operations_GH",
        "mgr_emp_no": "1672110017",
        "mgr_emp_nm": "Sang Putu Bagus AP"
      },
      {
        "inqr_seq": "115",
        "orz_cd": "4020162900",
        "orz_nm": "System & Network Operations_DH",
        "orz_stat_cd": "1",
        "orz_stat_nm": null,
        "orz_strt_date": "20170301",
        "orz_end_date": "29991231",
        "orz_lev_cd": "30",
        "orz_lev_nm": null,
        "rgn_cd": " ",
        "rgn_nm": " ",
        "urnk_orz_cd": "3020160400",
        "urnk_orz_nm": "IT Operations_GH",
        "mgr_emp_no": "1675110011",
        "mgr_emp_nm": "Rony Andry Anthony Sihotang"
      },
      {
        "inqr_seq": "116",
        "orz_cd": "5517789954",
        "orz_nm": "MANAGEMENT INFORMATION SERVICES",
        "orz_stat_cd": "1",
        "orz_stat_nm": null,
        "orz_strt_date": "20170407",
        "orz_end_date": "29991231",
        "orz_lev_cd": "30",
        "orz_lev_nm": null,
        "rgn_cd": " ",
        "rgn_nm": " ",
        "urnk_orz_cd": "3020160400",
        "urnk_orz_nm": "IT Operations_GH",
        "mgr_emp_no": "1787130124",
        "mgr_emp_nm": "Nuryanto Prastomo"
      }
    ],
    "empty": false,
    "first": true,
    "last": false,
    "number": 0,
    "numberOfElements": 10,
    "pageable": {
      "offset": 0,
      "pageNumber": 0,
      "pageSize": 10,
      "paged": true,
      "sort": {
        "empty": true,
        "sorted": false,
        "unsorted": true
      },
      "unpaged": false
    },
    "size": 10,
    "sort": {
      "empty": true,
      "sorted": false,
      "unsorted": true
    },
    "totalElements": 211,
    "totalPages": 22
  },
  "employees": {
    "content": [
      {
        "emp_no": "0089130731",
        "emp_nm": "Goku Uzumaki",
        "cont_stat_cd": "1",
        "cont_stat_nm": null,
        "cont_strt_date": "20250601",
        "cont_end_date": "29991231",
        "ktpno": "2018030068",
        "emp_tp_cd": "91",
        "emp_tp_nm": null,
        "srtp_cd": null,
        "srtp_nm": null,
        "orz_cd": "4020169018",
        "orz_nm": "Merchant Operations_MEM",
        "agencyno": "E0004",
        "agencynm": "INGENICO",
        "rgn_cd": null,
        "rgn_nm": null,
        "area_cd": null,
        "area_cd_nm": null,
        "tel_rgn_cd": null,
        "tel_no": null,
        "hp_rgn_cd": null,
        "hp_tel_no": "123241421423"
      },
      {
        "emp_no": "0089130732",
        "emp_nm": "Vegeta",
        "cont_stat_cd": "1",
        "cont_stat_nm": null,
        "cont_strt_date": "20250601",
        "cont_end_date": "29991231",
        "ktpno": "2018030069",
        "emp_tp_cd": "91",
        "emp_tp_nm": null,
        "srtp_cd": null,
        "srtp_nm": null,
        "orz_cd": "4020169018",
        "orz_nm": "Merchant Operations_MEM",
        "agencyno": "E0004",
        "agencynm": "INGENICO",
        "rgn_cd": null,
        "rgn_nm": null,
        "area_cd": null,
        "area_cd_nm": null,
        "tel_rgn_cd": null,
        "tel_no": null,
        "hp_rgn_cd": null,
        "hp_tel_no": "123241421423"
      },
      {
        "emp_no": "0089130733",
        "emp_nm": "Gohan",
        "cont_stat_cd": "1",
        "cont_stat_nm": null,
        "cont_strt_date": "20250601",
        "cont_end_date": "29991231",
        "ktpno": "2018030070",
        "emp_tp_cd": "91",
        "emp_tp_nm": null,
        "srtp_cd": null,
        "srtp_nm": null,
        "orz_cd": "4020169018",
        "orz_nm": "Merchant Operations_MEM",
        "agencyno": "E0004",
        "agencynm": "INGENICO",
        "rgn_cd": null,
        "rgn_nm": null,
        "area_cd": null,
        "area_cd_nm": null,
        "tel_rgn_cd": null,
        "tel_no": null,
        "hp_rgn_cd": null,
        "hp_tel_no": "123241421423"
      },
      {
        "emp_no": "0089130734",
        "emp_nm": "Trunks",
        "cont_stat_cd": "1",
        "cont_stat_nm": null,
        "cont_strt_date": "20250601",
        "cont_end_date": "29991231",
        "ktpno": "2018030071",
        "emp_tp_cd": "91",
        "emp_tp_nm": null,
        "srtp_cd": null,
        "srtp_nm": null,
        "orz_cd": "4020169018",
        "orz_nm": "Merchant Operations_MEM",
        "agencyno": "E0004",
        "agencynm": "INGENICO",
        "rgn_cd": null,
        "rgn_nm": null,
        "area_cd": null,
        "area_cd_nm": null,
        "tel_rgn_cd": null,
        "tel_no": null,
        "hp_rgn_cd": null,
        "hp_tel_no": "123241421423"
      },
      {
        "emp_no": "0089130735",
        "emp_nm": "Piccolo",
        "cont_stat_cd": "1",
        "cont_stat_nm": null,
        "cont_strt_date": "20250601",
        "cont_end_date": "29991231",
        "ktpno": "2018030072",
        "emp_tp_cd": "91",
        "emp_tp_nm": null,
        "srtp_cd": null,
        "srtp_nm": null,
        "orz_cd": "4020169018",
        "orz_nm": "Merchant Operations_MEM",
        "agencyno": "E0004",
        "agencynm": "INGENICO",
        "rgn_cd": null,
        "rgn_nm": null,
        "area_cd": null,
        "area_cd_nm": null,
        "tel_rgn_cd": null,
        "tel_no": null,
        "hp_rgn_cd": null,
        "hp_tel_no": "123241421423"
      },
      {
        "emp_no": "0089130736",
        "emp_nm": "Frieza",
        "cont_stat_cd": "1",
        "cont_stat_nm": null,
        "cont_strt_date": "20250601",
        "cont_end_date": "29991231",
        "ktpno": "2018030073",
        "emp_tp_cd": "91",
        "emp_tp_nm": null,
        "srtp_cd": null,
        "srtp_nm": null,
        "orz_cd": "4020169018",
        "orz_nm": "Merchant Operations_MEM",
        "agencyno": "E0004",
        "agencynm": "INGENICO",
        "rgn_cd": null,
        "rgn_nm": null,
        "area_cd": null,
        "area_cd_nm": null,
        "tel_rgn_cd": null,
        "tel_no": null,
        "hp_rgn_cd": null,
        "hp_tel_no": "123241421423"
      },
      {
        "emp_no": "0089130737",
        "emp_nm": "Cell",
        "cont_stat_cd": "1",
        "cont_stat_nm": null,
        "cont_strt_date": "20250601",
        "cont_end_date": "29991231",
        "ktpno": "2018030074",
        "emp_tp_cd": "91",
        "emp_tp_nm": null,
        "srtp_cd": null,
        "srtp_nm": null,
        "orz_cd": "4020169018",
        "orz_nm": "Merchant Operations_MEM",
        "agencyno": "E0004",
        "agencynm": "INGENICO",
        "rgn_cd": null,
        "rgn_nm": null,
        "area_cd": null,
        "area_cd_nm": null,
        "tel_rgn_cd": null,
        "tel_no": null,
        "hp_rgn_cd": null,
        "hp_tel_no": 123241421423
      }
    ],
    "empty": false,
    "first": true,
    "last": true,
    "number": 0,
    "numberOfElements": 1,
    "pageable": {
      "offset": 0,
      "pageNumber": 0,
      "pageSize": 10,
      "paged": true,
      "sort": {
        "empty": true,
        "sorted": false,
        "unsorted": true
      },
      "unpaged": false
    },
    "size": 10,
    "sort": {
      "empty": true,
      "sorted": false,
      "unsorted": true
    },
    "totalElements": 7,
    "totalPages": 1
  }
}